1 500000
962589 976244
547640 784528
800960 911131
255922 424195
556832 896804
717999 932690
97596 537277
488162 637117
887374 995161
544918 852614
531020 992546
222710 322458
661186 907733
858690 993702
404391 703405
898040 917869
633192 783950
352144 557087
172310 464337
835919 842094
604572 641543
986469 998134
900686 991045
476677 975801
303130 974882
164887 512110
111386 789983
626791 811949
699787 865571
891928 952161
513990 743732
856403 919178
776737 795804
39156 102519
365886 883403
240340 494139
804552 875383
19925 251456
721805 961090
944496 957257
795358 974526
39991 77300
302168 801151
466903 471154
405808 990817
651126 905435
276112 790072
87670 504945
9463 687850
75329 603411
771739 997018
796488 908751
489275 792956
38247 403326
633069 978824
721574 733049
688784 954351
681622 744785
780995 834188
986862 991489
392150 799120
494129 705993
713941 820780
816733 964489
455674 518458
190662 535130
786543 949620
420971 916002
967487 978827
271524 548980
681305 904209
239062 837564
643400 859899
272672 438357
72495 829862
654827 851767
980869 983864
456735 683300
306430 471655
508191 516110
501816 917991
282608 377341
816571 928001
793988 940605
306915 882908
388574 523077
347883 574368
706544 996443
676208 701689
374416 807045
351490 692184
722428 904022
411203 586345
273361 308666
208799 977183
429588 820805
841331 870887
548083 882971
252115 689035
76289 993987
132329 659868
621237 700513
292995 424987
150742 374802
805265 867543
983938 986040
845188 966676
287522 906884
986434 999149
433989 693378
430116 813346
587373 920327
326311 331764
288415 315274
287910 706897
110981 931147
879696 944321
873309 989558
127516 452114
532861 971402
361439 761973
109948 645305
386307 940514
401035 711986
357522 587702
492421 919130
153159 258865
500277 991030
55444 792241
216559 993935
506665 698857
228206 718841
983560 987522
649170 869212
330982 344938
453485 471398
937927 998638
877510 914363
543897 921695
951254 968774
557144 969780
697947 935922
568517 985588
740538 996300
923918 951382
818603 958027
321397 701472
169449 280416
727382 997379
2246 386048
237244 989168
253616 782478
56363 450137
304192 982828
14777 319358
188632 726126
840388 912112
109641 686656
111996 164947
701633 960324
943139 954302
708509 731162
102952 508310
124158 447764
414265 980940
331665 902240
874070 992387
603626 753370
600464 650889
974083 974879
232400 819951
570100 674453
351927 686044
196228 543433
222961 452040
53809 281622
389336 739599
722205 932110
330954 517906
506235 840565
865062 873292
762385 835086
649209 705656
251842 434125
554871 911730
206496 271197
254231 678066
867879 949415
751233 870106
622577 796710
945855 979190
169367 945752
647977 882738
29805 47670
103546 921564
230733 865087
607885 953177
73512 432594
28368 255979
962893 999651
638378 947161
915376 981885
334743 849310
78151 644818
251587 302270
999361 999706
419368 942132
485151 777071
914666 929596
575368 685882
965133 999709
369862 950159
232710 753310
752056 857203
572059 963714
278667 988356
461765 618716
573320 629659
75036 961247
373496 649527
645360 995048
618162 673221
982616 996516
568855 786881
743153 906768
85412 307311
761440 898872
945287 976888
257388 363928
559156 781258
126520 315000
991106 996631
532860 574974
501600 986956
755576 904559
480231 897553
13926 123344
56335 202034
177636 647335
107298 133098
415066 581678
708082 802315
996735 998779
375050 482446
788386 814402
907513 969576
180311 958660
962844 996773
616727 928643
77431 311281
1 1
1 2
1 3
1 4
1 5
1 10
10 10
9 9
5 5
