379645 795600
213914 418377
561555 433279
846923 67379
909370 607812
892462 30015
996500 608836
363931 419346
172247 803213
152208 87346
664863 887288
783920 937704
796059 300158
953064 788751
752722 500551
528315 398993
362183 967189
676172 44366
850699 363426
194816 844648
786270 412672
476585 242119
401916 733612
628203 120908
397149 716677
751703 696347
115329 47152
648430 677444
190239 572220
790935 219164
267999 198275
423239 220755
716103 276492
105136 246069
821609 351759
804047 312227
714133 232677
496561 958315
1198 517641
503501 978879
91912 700827
283101 282477
174601 915318
644041 403431
844564 739993
105554 495901
525103 351607
89910 432384
145383 186636
115141 764913
404475 67607
439401 733439
89679 588570
719017 480557
960643 882284
848586 10819
753588 783829
745885 547300
426835 428756
633868 295467
998175 682308
935783 912071
273046 217298
415127 623619
824712 542657
25012 36327
414773 773203
380221 111523
964268 946806
74669 913249
800933 343254
445489 826126
649171 967672
237334 953880
584177 401303
308019 331006
914157 583949
232895 650397
366443 142727
713067 367357
311020 349647
549315 51005
131798 566548
197124 983657
745034 914178
158379 61968
188330 772326
315171 351754
659525 480067
456256 127270
755830 505941
847576 762909
313614 334213
700961 19909
773394 763734
244110 589417
75299 483290
223778 221889
219420 513027
591932 417311
531686 27565
813933 278410
51139 771795
551198 626123
691455 233160
436355 259865
618101 856057
291219 367228
303654 320584
659222 73434
689666 69043
906890 79989
890314 682004
4284 707420
499541 88935
763567 92049
483401 346144
534327 44909
101113 325204
536424 111898
813800 867271
262311 305973
973101 330637
717171 178582
669655 271900
766254 951086
823338 757522
725656 350601
280198 909338
7862 556307
102044 986131
642589 931159
64977 35343
256785 153354
301454 935477
381434 651088
965661 766184
727185 946185
478648 962389
858038 160280
464884 26755
127519 834012
725535 443897
332253 933752
80979 406162
691622 606214
413150 721132
435331 621889
947819 471508
958492 375336
665978 818019
239711 477348
308100 540203
929179 565098
121600 496522
839121 491565
843357 177729
887530 220505
775737 898153
926361 220609
509238 195917
379814 651956
331774 485230
850595 87895
432046 703488
847524 651105
781785 42618
519608 147508
836558 119103
199171 539645
831221 380717
345986 153064
899159 826996
226156 318740
270986 977473
149186 603188
819732 853382
215734 246444
652409 228494
796741 282329
913846 785324
610713 380010
754675 663823
426677 820443
57906 220201
150008 406645
68131 779342
609674 91687
625510 390250
28361 459629
311819 639537
23059 835830
988533 725314
247008 88294
156865 251632
987032 70461
775496 976445
270637 392371
710536 923558
538703 164680
162924 107655
999693 68558
470462 342254
386643 178832
62440 860525
844789 707571
941504 332660
475624 406120
680842 348864
609413 34337
37387 247906
686228 451318
491407 866892
898338 983338
875389 115045
611140 656620
533613 328980
768481 34
582867 373830
654295 801819
953452 919711
126779 264593
988614 520297
780464 169237
996360 633127
485780 394741
719090 28362
738651 86851
965333 972466
69103 123828
4203 312567
92607 550682
135471 333378
247432 360588
581989 834001
72560 271824
401912 340827
84931 564323
491766 19151
822568 675040
698469 814098
857674 676826
622472 232712
232048 574377
182998 434830
942677 599442
480524 672514
512676 210450
80996 356661
602234 407028
476446 835628
808990 329433
356072 726056
857440 882820
741539 664445
241363 745153
357560 853687
679753 239458
266599 394079
125106 539942
422933 538349
659671 298673
246731 972492
851736 564665
212793 866072
695003 913603
858817 926253
700249 24276
41740 76391
455262 358520
116111 178069
19582 893542
285505 953182
983902 376635
166884 657774
269015 983921
236198 632096
694174 393209
531319 974471
173363 276814
