275300 210490 443
304153 740375 509
662437 110445 509
689167 255460 509
434492 347848 449
771439 79935 509
65763 312855 443
598517 836037 509
800850 900820 525
778860 75594 509
453549 200271 449
622489 588553 447
207401 723385 509
367048 673883 509
210090 839984 525
565313 281135 470
285451 67928 443
944440 580640 525
923973 348611 525
439673 395989 449
900515 547919 525
45184 141320 354
712712 212162 509
778968 452679 509
960317 628072 525
683644 896881 525
518028 514879 395
193852 30368 383
421848 35439 449
691003 655363 442
713292 850660 525
233863 530275 470
622930 918444 525
300659 294532 371
654571 643954 385
488659 566364 470
189389 109631 383
394990 500228 449
780496 375030 509
151880 361802 443
655077 439982 509
839429 971502 507
707743 915115 525
19946 805778 509
914406 872394 476
914034 784380 525
107788 889593 525
346708 327811 441
417330 354678 449
932051 485495 525
140748 554963 470
218326 800024 509
619500 375511 470
74868 276331 443
409884 292063 441
933890 659587 525
526780 884120 525
711200 359263 509
902666 66420 525
380583 380128 379
475105 505913 426
808065 351929 509
8258 191345 383
413698 149269 449
253627 186364 443
186523 858557 525
234716 260953 368
450927 162775 449
347293 890578 525
578844 795836 509
194901 169682 365
86890 198573 383
147868 899886 525
763475 658112 504
164996 480451 449
866143 68269 525
911828 861980 476
607632 392426 470
598243 500914 470
261587 615005 470
734688 929366 525
762635 125861 509
728558 646172 504
558870 67707 470
406424 599267 470
603022 462993 470
237431 336294 407
33998 46105 324
589603 221876 470
32799 240530 443
380533 12023 443
26547 836617 509
226324 688614 509
938567 814329 525
352149 442758 449
881863 792646 525
508694 62384 449
448250 792449 509
317712 487151 449
535166 800926 509
937588 201053 525
535395 430201 470
472952 573188 470
21069 882759 525
833102 692607 504
912874 206446 525
667332 235041 509
860246 371530 525
643216 287295 509
471049 786841 509
311227 726799 509
880188 932195 476
613549 590202 403
396377 799823 509
869948 583602 525
646634 499558 509
591656 741186 509
53740 219365 386
319713 573825 470
92586 912074 525
129606 633436 509
388812 361532 423
785652 907717 525
959925 631203 525
740009 403977 509
234696 633175 509
664613 283736 509
609330 558324 434
536249 260891 470
304117 629938 509
268213 327873 407
79546 956754 525
280276 419165 449
189681 448777 449
347261 893006 525
337810 573880 470
355035 277106 441
641153 483227 509
880108 275426 525
802106 209231 509
226791 920006 525
65563 67587 281
968446 804433 525
606668 449963 470
682962 721530 504
772452 229607 509
734438 890468 525
927036 683264 525
468655 798202 509
718879 263315 509
961399 260505 525
83065 420062 449
152796 493004 449
882329 861649 432
219371 585080 470
135840 537349 470
378077 505775 449
205477 560608 470
69923 416574 449
62912 307670 443
390446 354140 436
596613 658486 509
333831 558920 470
708064 597638 509
82950 418636 449
309437 491224 449
769847 532841 509
12920 540792 470
664178 273192 509
138813 955556 525
607159 137966 470
860017 796576 525
286387 131878 443
340957 883267 525
745032 136651 509
230249 519329 470
598327 412168 470
403753 374062 436
338777 670727 509
411217 191614 449
772052 188495 509
105082 432817 449
763342 202409 509
520372 755553 509
796943 568039 509
811667 102284 509
361921 98789 443
71061 478897 449
701099 870384 525
407757 493276 449
479437 875015 525
868903 891114 445
130100 747157 509
421431 385817 449
116421 15890 354
557862 825757 509
944611 918700 507
287123 832372 509
469309 695642 509
474346 996452 525
58049 140899 354
653854 829001 504
103873 363249 443
684763 938969 525
419136 545156 470
644737 281354 509
254245 451318 449
410235 248084 449
652252 27433 509
922211 831300 525
952386 595604 525
937627 365073 525
864312 307516 525
589277 884105 525
241627 13508 443
268920 619088 470
295284 706448 509
237265 374895 441
772749 979571 525
190597 615061 470
500665 521327 470
80959 621136 470
586763 665202 509
216105 671680 509
590637 933206 525
555939 932734 525
496373 557774 470
705322 528225 509
276092 423670 449
133785 390064 443
290688 97814 443
701726 823082 504
815937 938056 525
282825 969555 525
224120 423367 449
717401 851884 525
418322 420585 343
706985 232961 509
37055 405521 443
159875 720415 509
805848 306106 509
150466 608089 470
553985 948732 525
452635 209502 449
658370 702167 442
579037 900451 525
807722 430992 509
650653 172073 509
240334 892490 525
182436 598709 470
331736 205391 443
709427 807107 468
311481 922967 525
449956 184964 449
45790 769250 509
728988 706299 411
327623 55369 443
474211 889503 525
974638 648760 525
545193 393116 470
566945 600619 434
548971 700464 509
702333 243104 509
190565 303377 443
385317 450571 449
778100 245197 509
962390 161768 525
601978 266402 470
816301 993459 525
208571 861462 525
781553 20414 509
234797 109132 443
398915 766161 509
387177 515274 470
305121 128742 443
836786 939077 525
968784 293953 525
748382 256548 509
270257 907841 525
314657 907338 525
218759 773179 509
868839 689923 525
933018 721120 525
900032 387409 525
698571 781800 504
250274 103714 443
456104 719941 509
700691 789663 504
759236 677281 504
414779 661830 509
330978 615182 470
26436 461892 449
998630 48945 525
75199 667226 509
827602 356699 509
571431 889831 525
645677 333245 509
896008 153973 525
368521 572838 470
849740 32840 525
