65191 303926
572165 966172
219631 386992
114074 217196
968237 204198
268390 217303
278544 425910
182568 333582
209256 386798
446238 948701
775472 87070
541006 24668
56701 253741
281907 349427
708650 825416
972933 396910
790189 52164
409981 219797
258435 502008
139778 259864
58853 836160
76020 449100
971702 48030
722704 636646
248853 913188
43266 18227
884899 69664
839170 106383
590543 763512
498973 104650
205609 304878
806187 349617
283314 177196
283996 415802
160684 318146
239597 519485
588380 618537
312568 697192
204634 628430
656818 341090
602817 481341
391860 330461
218841 591158
994254 247562
371989 608538
950920 527952
120469 335775
15203 456693
153506 609977
416675 672120
314022 379594
619839 663041
293044 395038
145792 674149
952563 454970
287807 381526
361196 290336
494777 989912
365737 99713
160879 899995
295757 638687
896219 979809
373105 299900
480619 57845
209948 574378
608611 876293
334975 620996
216611 485945
267946 570789
356981 891120
23405 102554
574234 271219
787451 739089
579798 284084
153182 337692
863727 432461
890635 446649
586197 465368
713131 13311
389979 346578
194003 483953
576446 930617
79859 945331
526573 237780
623217 868124
893847 945246
227787 317423
756067 372923
195626 790841
58643 974899
789694 573622
231825 383361
271025 813048
611180 894732
350104 308499
541452 186780
736142 792220
985318 563409
64079 588970
135792 769574
413895 715079
461133 50001
855028 466229
548370 218992
845663 231767
444961 604011
847551 793518
701014 350165
658199 285003
31495 133529
47468 311799
209560 98715
881582 477546
414796 380686
549659 880475
331636 356063
957888 149018
302682 540473
107761 111969
112921 882125
278924 253376
61618 808023
203065 205324
361845 786289
539609 225906
168049 600204
840893 848230
214543 762138
89173 85898
272388 907972
455399 66386
505253 637072
841641 169095
629491 25567
254074 972067
265065 791594
63340 677278
962317 770228
884502 461268
891174 740080
636937 358613
700284 566086
321953 510134
423306 119726
883261 368394
355054 355648
767790 915189
831019 322272
206625 203159
599365 966680
210552 698574
240737 867303
940889 525006
12040 307119
232855 598864
3367 955191
900339 784738
699451 123986
301931 333010
432941 718398
30938 597738
523152 126413
296652 535285
243751 975737
892439 14117
215039 79378
601973 557096
422774 382531
254563 810882
880093 353648
258191 486893
560094 416650
737594 271313
629942 29999
974367 293946
82003 337144
627345 835288
150081 388592
993168 449599
174034 908879
779575 814194
531737 198216
577635 703923
531187 332756
748548 310054
950579 325912
612971 577694
147553 645314
675423 970776
368388 279304
44700 413478
965628 710746
90803 389352
193281 326631
420691 813267
971086 47239
635783 701254
599746 479867
222799 364921
497149 460035
520010 926615
264546 757575
947544 169677
610781 110558
580200 920005
695860 923453
626101 54791
234553 853177
979037 352825
93477 219262
969967 913821
372106 226018
681851 792659
55487 901473
733255 220837
13904 746785
684860 919299
684999 426836
211953 531529
9039 553076
393073 833610
664365 468362
870344 892924
104017 793921
2516 814208
7575 763851
254849 935816
569466 758211
65196 368447
869777 209304
306576 284666
375065 984684
657575 398087
510581 210895
411548 842077
362453 177580
675882 325861
416110 360279
340157 793456
565907 421697
212050 219464
936584 378259
148800 614281
35559 497834
90408 492533
276565 826675
773685 598987
372922 680713
442264 697895
208328 855325
516870 511994
455600 893516
624628 716412
354194 9085
400515 425684
45365 471613
143798 642619
854112 873834
721491 551213
387906 886431
824966 687967
991408 367439
263798 623486
686133 888042
749640 936148
543073 882391
197142 503380
376509 797134
905961 467091
892493 872756
585056 850139
914191 229844
634403 733462
790527 416572
328782 275407
7490 872534
256940 902285
57658 555992
129059 818802
61034 366015
606971 977711
717621 969366
728935 379458
236072 108774
75173 770607
141769 908064
365995 778128
580239 844243
945318 868371
389495 411369
387449 640376
306180 630959
302947 420448
925494 716119
185784 145533
992690 167558
536568 634015
689259 792589
912927 234066
365768 648256
