257132 418775
501416 960994
253373 35565
198869 344797
485542 685314
925279 962897
832447 109067
204261 430440
945183 915718
811040 279436
529010 659540
255790 993788
497796 316463
726085 416140
418957 362202
903310 264087
684077 353063
183998 705114
545066 70775
156564 716443
15993 428174
679284 669916
128342 473533
566528 322947
399737 429193
488980 269784
743138 355132
856685 576308
911985 95526
942428 434719
562969 927970
726675 378394
990428 163060
832625 746778
430768 201726
399791 92701
542465 721303
871591 994508
966951 807030
833719 961546
370333 256231
931088 434094
423595 395829
602500 937619
530244 444792
290470 131082
395300 619290
511633 517898
280369 997587
915560 343324
393020 613693
806088 485100
975145 87816
282263 343669
500677 411208
248930 538721
60484 423239
431043 383842
362083 717802
694434 785414
901229 500191
850286 930554
365569 324310
601606 918530
891634 365320
149043 638054
108575 853449
210966 278038
20783 656711
2453 623764
233874 770109
442777 191849
3512 816967
323000 210401
565429 851021
717316 84309
719000 927805
423637 320507
63821 280044
306945 684429
432684 60399
195177 189318
430908 402905
816211 104220
742794 578842
882173 839587
917034 88698
560425 519029
229505 817782
468905 49307
947287 235704
424628 331296
470733 880214
937468 278976
817155 932658
420566 526604
340206 970846
178824 925624
31355 156825
467931 403502
300790 909406
940796 883600
336771 106252
886597 669253
64473 716066
457709 956102
26589 728469
112165 117551
927817 39680
758227 351662
763805 135042
941268 751792
780 997203
246068 99900
818490 613887
86707 24508
704390 718482
951487 675515
122150 35069
138981 484809
321526 954575
507541 936590
853239 175321
640563 181342
519078 95061
50682 235802
878845 43649
979342 94354
274313 483441
185293 619301
225298 693106
577623 659997
423638 503784
771968 76357
271975 744532
156041 603753
850133 335549
208664 739515
593599 142409
251596 225874
821502 273105
874984 707584
821598 403172
821379 314797
711242 75402
344841 506487
333465 155698
131674 517914
13334 863381
806980 709510
122348 162334
807372 681537
565031 192504
827355 620832
485058 465300
939306 15005
617856 471210
477241 460926
837253 211343
451716 97166
671826 330128
390101 395201
711793 354289
868032 196851
318978 111106
678507 292524
854420 494789
75783 384146
257513 988332
562900 833958
775091 25271
756709 965191
115070 964897
830599 296669
652542 179477
39099 917689
674347 427047
405076 167522
341594 626568
30547 820857
530019 301011
768333 219934
256331 605384
320271 795357
373458 656735
736593 165696
351528 490720
921742 27291
921245 383799
445997 256645
900980 194857
576913 144358
818242 432159
296691 417912
403600 492261
655031 444424
560808 347331
806332 234204
306459 820830
476525 287254
974028 210330
449328 138340
126618 840045
852300 8108
