295374 236713
661701 818574
899848 376898
804727 674279
275517 857969
685459 62236
744357 797024
153270 158404
789095 664309
735477 712970
976631 998345
35524 923123
352145 429302
524431 726499
469483 466991
524628 419940
204470 260561
581963 54466
364948 298854
38454 54090
975593 176471
753589 10583
709138 712972
896127 501507
785405 642256
407337 202307
77528 920980
799676 571870
349460 503510
742741 926110
67060 377162
155599 553075
721776 219051
155752 689782
183073 542614
102115 436526
283553 443309
298908 249482
570583 128780
713273 311668
887230 638919
853712 369651
183033 96861
324084 677796
861651 212615
21334 683500
794347 440788
855017 651093
610959 569215
949363 52300
296040 789885
654184 110800
653588 235588
88892 676951
437463 183820
644280 347012
224796 46530
559828 426845
887852 706807
535363 361930
256575 35575
792503 917896
667402 462050
814795 179734
884312 487868
44795 817264
819910 311179
943110 814475
666476 568782
420391 821553
208623 857955
437325 701759
683568 486315
61976 626003
963580 9016
604936 545329
475375 172804
811654 156919
308681 624522
1329 758288
503221 778792
982373 447170
304500 875943
904109 29997
385180 846868
936782 109145
851868 945821
511178 273750
101275 260680
857164 360493
923895 915983
394866 354358
5339 825182
894197 516816
202922 805330
67409 655686
323564 596225
803970 584429
578494 312809
690228 256361
568427 467166
307829 793628
790387 114266
353504 70365
899236 298279
675959 247018
175443 736576
227989 805529
576660 952041
541689 469021
430863 294110
267997 226025
297133 566677
243607 778731
162899 380088
871567 392843
902265 487773
209305 258785
160538 294927
940201 369736
945558 245354
386195 468250
41514 365252
425501 991848
950085 800825
650933 354383
851322 44918
855255 222704
115332 683987
161959 958246
855881 305043
716655 800022
280689 96440
147641 414522
970720 398209
856207 714514
296487 337562
126904 132702
513007 52974
988580 466031
213757 291136
92496 376107
922006 588801
695430 38027
233475 113168
685817 355371
277438 966542
588070 584738
584082 67719
323170 13334
896510 886391
585060 589645
766673 999820
703980 258337
941787 571105
308738 277471
678443 153202
302303 776415
256056 109651
481770 513341
729995 168517
186561 37644
973518 578024
276489 224374
262563 543290
305220 583150
537853 114951
866912 64588
677107 683373
510953 535548
339528 649405
879758 406760
108027 728721
896592 281787
552156 838018
386356 360013
119294 466795
82475 541465
774933 936558
39160 328388
460420 124588
365600 912746
738113 5939
500317 595073
164816 374038
942389 473015
293344 238756
675400 969365
668410 870266
521967 18526
689824 941266
432055 338111
160547 886638
655687 726064
480108 836257
402077 820570
962075 786047
191300 918046
335505 25680
906169 205830
29337 833429
562488 722824
299291 414787
168252 626969
59183 687386
301921 580421
749909 211450
165982 779025
26209 537502
567817 232872
470107 470077
377536 51651
51178 96607
75580 51724
130154 548618
144609 172181
63462 138115
937888 652957
213227 706947
565129 221558
54618 963871
53515 107207
37704 611332
860810 817954
947635 783798
817519 83855
829987 614373
857052 114412
688528 697263
305278 377561
893130 106044
780756 595460
355875 30997
426657 337934
986226 612785
838409 20919
229931 600046
401161 388340
476863 988226
498034 470037
918695 545144
897845 831622
150102 443796
365551 461960
804654 888431
903275 743622
78772 686209
904068 889709
670516 167628
863917 63772
225846 701391
481868 609520
164226 911617
